{
  "databaseChangeLog": [
    {
      "changeSet": {
        "id": "3",
        "author": "privalia",
        "changes": [
          {
            "loadData": {
              "catalogName": "exam",
              "columns": [
                {
                  "column": {
                    "name": "address",
                    "type": "STRING"
                  }
                }
              ]
            ,
              "encoding": "UTF-8",
              "file": "fixtures/address.csv",
              "quotchar": "",
              "schemaName": "public",
              "separator": ",",
              "tableName": "address"
            }
          },
          {
            "loadData": {
              "catalogName": "exam",
              "columns": [
                {
                  "column": {
                    "name": "name",
                    "type": "STRING"
                  }
                },
                {
                  "column": {
                    "name": "address_id",
                    "type": "NUMERIC"
                  }
                }
              ]
            ,
              "encoding": "UTF-8",
              "file": "fixtures/student.csv",
              "quotchar": "",
              "schemaName": "public",
              "separator": ",",
              "tableName": "student"
            }
          }
        ]
      }
    }
  ]
}